R for Environmental Chemistry Data Analysis - 5 Tidyverse
…
https://r4ds.hadley.nz/data-transform#sec-the-pipe

To change the shortcut Ctrl+shift+M to use the new pipe, go to “Global options” -> “Code” -> “Use native pipe operator..”

5.1.1 Helpful dplyr functions

https://dplyr.tidyverse.org/index.html

select and filter

 PFAS_insects |>  
   select(PFOS) |> 
   filter(PFOS > 100)

# A tibble: 65 × 1
    PFOS
   <dbl>
 1  229.
 2  140.
 3 1045.
 4  442.
 5  540.
 6  223.
 7  976.
 8  559.
 9  830.
10  162.
# ℹ 55 more rows
…
